<?xml version="1.0" encoding="iso-8859-1"?>
<!-- Generator: Adobe Illustrator 16.0.0, SVG Export Plug-In . SVG Version: 6.00 Build 0)  -->
<!DOCTYPE svg PUBLIC "-//W3C//DTD SVG 1.1//EN" "http://www.w3.org/Graphics/SVG/1.1/DTD/svg11.dtd">
<svg version="1.1" id="Layer_1" xmlns="http://www.w3.org/2000/svg" x="0px" y="0px"
     width="14px" height="14px" viewBox="0 0 14 14" style="enable-background:new 0 0 14 14;" xml:space="preserve">
<path fill="#FFF" d="M12.601,11.187C13.476,10.018,14,8.572,14,7c0-3.866-3.134-7-7-7C5.428,0,3.982,0.524,2.813,1.399L2.757,1.343L2.053,2.048
	L2.048,2.053L1.343,2.758l0.056,0.056C0.524,3.982,0,5.428,0,7c0,3.866,3.134,7,7,7c1.572,0,3.018-0.524,4.187-1.399l0.056,0.057
	l0.705-0.705l0.005-0.005l0.705-0.705L12.601,11.187z M7,2c2.761,0,5,2.238,5,5c0,1.019-0.308,1.964-0.832,2.754L4.246,2.832
	C5.036,2.308,5.981,2,7,2z M7,12c-2.761,0-5-2.238-5-5c0-1.019,0.308-1.964,0.832-2.754l6.922,6.922C8.964,11.692,8.019,12,7,12z"/>
<g>
</g>
<g>
</g>
<g>
</g>
<g>
</g>
<g>
</g>
<g>
</g>
<g>
</g>
<g>
</g>
<g>
</g>
<g>
</g>
<g>
</g>
<g>
</g>
<g>
</g>
<g>
</g>
<g>
</g>
</svg>
